{
    "AWSEBDockerrunVersion": "1",
    "Image": {
      "Name": "cedricgdev/oc-sopralto:latest",
      "Update": "true"
    },
    "Ports": [
      {
        "ContainerPort": "5000"
      }
    ]
  }